﻿Log file open, 12/31/20 20:50:26
LogInit: LLM is enabled
LogInit: LLM CsvWriter: off TraceWriter: off
LogInit: Display: Running engine for game: Game
LogPlatformFile: Not using cached read wrapper
LogTaskGraph: Started task graph with 5 named threads and 35 total threads with 3 sets of task threads.
LogStats: Stats thread started at 0.246991
LogD3D11RHI: Loaded GFSDK_Aftermath_Lib.x64.dll
LogICUInternationalization: ICU TimeZone Detection - Raw Offset: +8:00, Platform Override: ''
LogPluginManager: Mounting plugin MeshPainting
LogPluginManager: Mounting plugin XGEController
LogPluginManager: Mounting plugin Paper2D
LogPluginManager: Mounting plugin CameraShakePreviewer
LogPluginManager: Mounting plugin LightPropagationVolume
LogPluginManager: Mounting plugin AnimationSharing
LogPluginManager: Mounting plugin CLionSourceCodeAccess
LogPluginManager: Mounting plugin CodeLiteSourceCodeAccess
LogPluginManager: Mounting plugin GitSourceControl
LogPluginManager: Mounting plugin NullSourceCodeAccess
LogPluginManager: Mounting plugin KDevelopSourceCodeAccess
LogPluginManager: Mounting plugin PerforceSourceControl
LogPluginManager: Mounting plugin PlasticSourceControl
LogPluginManager: Mounting plugin PluginUtils
LogPluginManager: Mounting plugin PropertyAccessNode
LogPluginManager: Mounting plugin RiderSourceCodeAccess
LogPluginManager: Mounting plugin UObjectPlugin
LogPluginManager: Mounting plugin SubversionSourceControl
LogPluginManager: Mounting plugin VisualStudioSourceCodeAccess
LogPluginManager: Mounting plugin VisualStudioCodeSourceCodeAccess
LogPluginManager: Mounting plugin AssetManagerEditor
LogPluginManager: Mounting plugin XCodeSourceCodeAccess
LogPluginManager: Mounting plugin CryptoKeys
LogPluginManager: Mounting plugin CurveEditorTools
LogPluginManager: Mounting plugin DataValidation
LogPluginManager: Mounting plugin FacialAnimation
LogPluginManager: Mounting plugin GameplayTagsEditor
LogPluginManager: Mounting plugin MacGraphicsSwitching
LogPluginManager: Mounting plugin GeometryMode
LogPluginManager: Mounting plugin SpeedTreeImporter
LogPluginManager: Mounting plugin MobileLauncherProfileWizard
LogPluginManager: Mounting plugin PluginBrowser
LogPluginManager: Mounting plugin MaterialAnalyzer
LogPluginManager: Mounting plugin LuminPlatformFeatures
LogPluginManager: Mounting plugin MagicLeap
LogPluginManager: Mounting plugin MagicLeapLightEstimation
LogPluginManager: Mounting plugin AlembicImporter
LogPluginManager: Mounting plugin MagicLeapMedia
LogPluginManager: Mounting plugin MagicLeapPassableWorld
LogPluginManager: Mounting plugin AutomationUtils
LogPluginManager: Mounting plugin BackChannel
LogPluginManager: Mounting plugin MLSDK
LogPluginManager: Mounting plugin ChaosCloth
LogPluginManager: Mounting plugin ChaosEditor
LogPluginManager: Mounting plugin ChaosClothEditor
LogPluginManager: Mounting plugin ChaosSolverPlugin
LogPluginManager: Mounting plugin ChaosNiagara
LogPluginManager: Mounting plugin CharacterAI
LogPluginManager: Mounting plugin GeometryCache
LogPluginManager: Mounting plugin GeometryProcessing
LogPluginManager: Mounting plugin GeometryCollectionPlugin
LogPluginManager: Mounting plugin DatasmithContent
LogPluginManager: Mounting plugin MotoSynth
LogPluginManager: Mounting plugin PlanarCut
LogPluginManager: Mounting plugin ProxyLODPlugin
LogPluginManager: Mounting plugin PlatformCrypto
LogPluginManager: Mounting plugin SkeletalReduction
LogPluginManager: Mounting plugin VariantManagerContent
LogPluginManager: Mounting plugin OnlineSubsystem
LogPluginManager: Mounting plugin OnlineSubsystemNull
LogPluginManager: Mounting plugin OnlineSubsystemUtils
LogPluginManager: Mounting plugin TcpMessaging
LogPluginManager: Mounting plugin LauncherChunkInstaller
LogPluginManager: Mounting plugin UdpMessaging
LogPluginManager: Mounting plugin ActorLayerUtilities
LogPluginManager: Mounting plugin AndroidMoviePlayer
LogPluginManager: Mounting plugin AndroidDeviceProfileSelector
LogPluginManager: Mounting plugin AndroidPermission
LogPluginManager: Mounting plugin AppleImageUtils
LogPluginManager: Mounting plugin AppleMoviePlayer
LogPluginManager: Mounting plugin AssetTags
LogPluginManager: Mounting plugin ArchVisCharacter
LogPluginManager: Mounting plugin AudioCapture
LogPluginManager: Mounting plugin CableComponent
LogPluginManager: Mounting plugin AudioSynesthesia
LogPluginManager: Mounting plugin ChunkDownloader
LogPluginManager: Mounting plugin CustomMeshComponent
LogPluginManager: Mounting plugin EditableMesh
LogPluginManager: Mounting plugin ExampleDeviceProfileSelector
LogPluginManager: Mounting plugin GoogleCloudMessaging
LogPluginManager: Mounting plugin GooglePAD
LogPluginManager: Mounting plugin ScreenshotTools
LogPluginManager: Mounting plugin LinuxDeviceProfileSelector
LogPluginManager: Mounting plugin LocationServicesBPLibrary
LogPluginManager: Mounting plugin IOSDeviceProfileSelector
LogPluginManager: Mounting plugin MobilePatchingUtils
LogPluginManager: Mounting plugin PostSplashScreen
LogPluginManager: Mounting plugin PhysXVehicles
LogPluginManager: Mounting plugin ProceduralMeshComponent
LogPluginManager: Mounting plugin PropertyAccessEditor
LogPluginManager: Mounting plugin RuntimePhysXCooking
LogPluginManager: Mounting plugin SignificanceManager
LogPluginManager: Mounting plugin SoundFields
LogPluginManager: Mounting plugin Synthesis
LogPluginManager: Mounting plugin WebMMoviePlayer
LogPluginManager: Mounting plugin WindowsMoviePlayer
LogPluginManager: Mounting plugin AISupport
LogPluginManager: Mounting plugin Niagara
LogPluginManager: Mounting plugin EnvironmentQueryEditor
LogPluginManager: Mounting plugin LevelSequenceEditor
LogPluginManager: Mounting plugin ActorSequence
LogPluginManager: Mounting plugin MatineeToLevelSequence
LogPluginManager: Mounting plugin AndroidMedia
LogPluginManager: Mounting plugin AvfMedia
LogPluginManager: Mounting plugin TemplateSequence
LogPluginManager: Mounting plugin ImgMedia
LogPluginManager: Mounting plugin MediaCompositing
LogPluginManager: Mounting plugin MediaPlayerEditor
LogPluginManager: Mounting plugin WebMMedia
LogPluginManager: Mounting plugin WmfMedia
LogPluginManager: Mounting plugin ContentBrowserAssetDataSource
LogPluginManager: Mounting plugin ContentBrowserClassDataSource
LogPluginManager: Mounting plugin OnlineSubsystemGooglePlay
LogPluginManager: Mounting plugin OnlineSubsystemIOS
LogPluginManager: Mounting plugin OculusVR
LogPluginManager: Mounting plugin SteamVR
LogXGEController: Cannot use XGE Controller as Incredibuild is not installed on this machine.
LogInit: Using libcurl 7.55.1-DEV
LogInit:  - built for x86_64-pc-win32
LogInit:  - supports SSL with OpenSSL/1.1.1
LogInit:  - supports HTTP deflate (compression) using libz 1.2.8
LogInit:  - other features:
LogInit:      CURL_VERSION_SSL
LogInit:      CURL_VERSION_LIBZ
LogInit:      CURL_VERSION_IPV6
LogInit:      CURL_VERSION_ASYNCHDNS
LogInit:      CURL_VERSION_LARGEFILE
LogInit:      CURL_VERSION_IDN
LogInit:  CurlRequestOptions (configurable via config and command line):
LogInit:  - bVerifyPeer = true  - Libcurl will verify peer certificate
LogInit:  - bUseHttpProxy = false  - Libcurl will NOT use HTTP proxy
LogInit:  - bDontReuseConnections = false  - Libcurl will reuse connections
LogInit:  - MaxHostConnections = 16  - Libcurl will limit the number of connections to a host
LogInit:  - LocalHostAddr = Default
LogInit:  - BufferSize = 65536
LogOnline: OSS: Creating online subsystem instance for: NULL
LogInit: WinSock: version 1.1 (2.2), MaxSocks=32767, MaxUdp=65467
LogOnline: OSS: TryLoadSubsystemAndSetDefault: Loaded subsystem for module [NULL]
LogInit: Build: ++UE4+Release-4.26-CL-14830424
LogInit: Engine Version: 4.26.0-14830424+++UE4+Release-4.26
LogInit: Compatible Engine Version: 4.26.0-14830424+++UE4+Release-4.26
LogInit: Net CL: 14830424
LogInit: OS: Windows 10 (Release 2009) (), CPU: AMD Ryzen 5 3600 6-Core Processor              , GPU: NVIDIA GeForce RTX 2070
LogInit: Compiled (64-bit): Dec  1 2020 15:13:26
LogInit: Compiled with Visual C++: 19.24.28315.00
LogInit: Build Configuration: Development
LogInit: Branch Name: ++UE4+Release-4.26
LogInit: Command Line:  /Game/Levels/Main -game -PIEVIACONSOLE -Multiprocess GameUserSettingsINI=D:/ProjectG/Game/Saved/Config/Windows/PIEGameUserSettings0.ini -MultiprocessSaveConfig -MultiprocessOSS -messaging -SessionName="Play in Standalone Game" -windowed -WinX=350 -WinY=293 SAVEWINPOS=1 -ResX=640 -ResY=480
LogInit: Base Directory: C:/Program Files/Epic Games/UE_4.26/Engine/Binaries/Win64/
LogInit: Allocator: TBB
LogInit: Installed Engine Build: 1
LogDevObjectVersion: Number of dev versions registered: 29
LogDevObjectVersion:   Dev-Blueprints (B0D832E4-1F89-4F0D-ACCF-7EB736FD4AA2): 10
LogDevObjectVersion:   Dev-Build (E1C64328-A22C-4D53-A36C-8E866417BD8C): 0
LogDevObjectVersion:   Dev-Core (375EC13C-06E4-48FB-B500-84F0262A717E): 4
LogDevObjectVersion:   Dev-Editor (E4B068ED-F494-42E9-A231-DA0B2E46BB41): 40
LogDevObjectVersion:   Dev-Framework (CFFC743F-43B0-4480-9391-14DF171D2073): 37
LogDevObjectVersion:   Dev-Mobile (B02B49B5-BB20-44E9-A304-32B752E40360): 3
LogDevObjectVersion:   Dev-Networking (A4E4105C-59A1-49B5-A7C5-40C4547EDFEE): 0
LogDevObjectVersion:   Dev-Online (39C831C9-5AE6-47DC-9A44-9C173E1C8E7C): 0
LogDevObjectVersion:   Dev-Physics (78F01B33-EBEA-4F98-B9B4-84EACCB95AA2): 4
LogDevObjectVersion:   Dev-Platform (6631380F-2D4D-43E0-8009-CF276956A95A): 0
LogDevObjectVersion:   Dev-Rendering (12F88B9F-8875-4AFC-A67C-D90C383ABD29): 44
LogDevObjectVersion:   Dev-Sequencer (7B5AE74C-D270-4C10-A958-57980B212A5A): 12
LogDevObjectVersion:   Dev-VR (D7296918-1DD6-4BDD-9DE2-64A83CC13884): 3
LogDevObjectVersion:   Dev-LoadTimes (C2A15278-BFE7-4AFE-6C17-90FF531DF755): 1
LogDevObjectVersion:   Private-Geometry (6EACA3D4-40EC-4CC1-B786-8BED09428FC5): 3
LogDevObjectVersion:   Dev-AnimPhys (29E575DD-E0A3-4627-9D10-D276232CDCEA): 17
LogDevObjectVersion:   Dev-Anim (AF43A65D-7FD3-4947-9873-3E8ED9C1BB05): 15
LogDevObjectVersion:   Dev-ReflectionCapture (6B266CEC-1EC7-4B8F-A30B-E4D90942FC07): 1
LogDevObjectVersion:   Dev-Automation (0DF73D61-A23F-47EA-B727-89E90C41499A): 1
LogDevObjectVersion:   FortniteMain (601D1886-AC64-4F84-AA16-D3DE0DEAC7D6): 43
LogDevObjectVersion:   FortniteRelease (E7086368-6B23-4C58-8439-1B7016265E91): 1
LogDevObjectVersion:   Dev-Enterprise (9DFFBCD6-494F-0158-E221-12823C92A888): 10
LogDevObjectVersion:   Dev-Niagara (F2AED0AC-9AFE-416F-8664-AA7FFA26D6FC): 1
LogDevObjectVersion:   Dev-Destruction (174F1F0B-B4C6-45A5-B13F-2EE8D0FB917D): 10
LogDevObjectVersion:   Dev-Physics-Ext (35F94A83-E258-406C-A318-09F59610247C): 40
LogDevObjectVersion:   Dev-PhysicsMaterial-Chaos (B68FC16E-8B1B-42E2-B453-215C058844FE): 1
LogDevObjectVersion:   Dev-CineCamera (B2E18506-4273-CFC2-A54E-F4BB758BBA07): 1
LogDevObjectVersion:   Dev-VirtualProduction (64F58936-FD1B-42BA-BA96-7289D5D0FA4E): 1
LogDevObjectVersion:   Dev-MediaFramework (6F0ED827-A609-4895-9C91-998D90180EA4): 2
LogInit: Presizing for max 25165824 objects, including 0 objects not considered by GC, pre-allocating 0 bytes for permanent pool.
LogConfig: Applying CVar settings from Section [/Script/Engine.StreamingSettings] File [D:/ProjectG/Game/Saved/Config/Windows/Engine.ini]
LogConfig: Setting CVar [[s.MinBulkDataSizeForAsyncLoading:131072]]
LogConfig: Setting CVar [[s.AsyncLoadingThreadEnabled:0]]
LogConfig: Setting CVar [[s.EventDrivenLoaderEnabled:1]]
LogConfig: Setting CVar [[s.WarnIfTimeLimitExceeded:0]]
LogConfig: Setting CVar [[s.TimeLimitExceededMultiplier:1.5]]
LogConfig: Setting CVar [[s.TimeLimitExceededMinTime:0.005]]
LogConfig: Setting CVar [[s.UseBackgroundLevelStreaming:1]]
LogConfig: Setting CVar [[s.PriorityAsyncLoadingExtraTime:15.0]]
LogConfig: Setting CVar [[s.LevelStreamingActorsUpdateTimeLimit:5.0]]
LogConfig: Setting CVar [[s.PriorityLevelStreamingActorsUpdateExtraTime:5.0]]
LogConfig: Setting CVar [[s.LevelStreamingComponentsRegistrationGranularity:10]]
LogConfig: Setting CVar [[s.UnregisterComponentsTimeLimit:1.0]]
LogConfig: Setting CVar [[s.LevelStreamingComponentsUnregistrationGranularity:5]]
LogConfig: Setting CVar [[s.FlushStreamingOnExit:1]]
LogInit: Object subsystem initialized
LogConfig: Setting CVar [[con.DebugEarlyDefault:1]]
LogConfig: Setting CVar [[r.setres:1280x720]]
[2020.12.31-12.50.27:183][  0]LogConfig: Setting CVar [[con.DebugEarlyDefault:1]]
[2020.12.31-12.50.27:183][  0]LogConfig: Setting CVar [[r.setres:1280x720]]
[2020.12.31-12.50.27:183][  0]LogConfig: Applying CVar settings from Section [/Script/Engine.RendererSettings] File [D:/ProjectG/Game/Saved/Config/Windows/Engine.ini]
[2020.12.31-12.50.27:183][  0]LogConfig: Setting CVar [[r.GPUCrashDebugging:0]]
[2020.12.31-12.50.27:183][  0]LogConfig: Applying CVar settings from Section [/Script/Engine.RendererOverrideSettings] File [D:/ProjectG/Game/Saved/Config/Windows/Engine.ini]
[2020.12.31-12.50.27:183][  0]LogConfig: Applying CVar settings from Section [/Script/Engine.StreamingSettings] File [D:/ProjectG/Game/Saved/Config/Windows/Engine.ini]
[2020.12.31-12.50.27:183][  0]LogConfig: Setting CVar [[s.MinBulkDataSizeForAsyncLoading:131072]]
[2020.12.31-12.50.27:183][  0]LogConfig: Setting CVar [[s.AsyncLoadingThreadEnabled:0]]
[2020.12.31-12.50.27:183][  0]LogConfig: Setting CVar [[s.EventDrivenLoaderEnabled:1]]
[2020.12.31-12.50.27:183][  0]LogConfig: Setting CVar [[s.WarnIfTimeLimitExceeded:0]]
[2020.12.31-12.50.27:183][  0]LogConfig: Setting CVar [[s.TimeLimitExceededMultiplier:1.5]]
[2020.12.31-12.50.27:183][  0]LogConfig: Setting CVar [[s.TimeLimitExceededMinTime:0.005]]
[2020.12.31-12.50.27:183][  0]LogConfig: Setting CVar [[s.UseBackgroundLevelStreaming:1]]
[2020.12.31-12.50.27:183][  0]LogConfig: Setting CVar [[s.PriorityAsyncLoadingExtraTime:15.0]]
[2020.12.31-12.50.27:183][  0]LogConfig: Setting CVar [[s.LevelStreamingActorsUpdateTimeLimit:5.0]]
[2020.12.31-12.50.27:183][  0]LogConfig: Setting CVar [[s.PriorityLevelStreamingActorsUpdateExtraTime:5.0]]
[2020.12.31-12.50.27:183][  0]LogConfig: Setting CVar [[s.LevelStreamingComponentsRegistrationGranularity:10]]
[2020.12.31-12.50.27:183][  0]LogConfig: Setting CVar [[s.UnregisterComponentsTimeLimit:1.0]]
[2020.12.31-12.50.27:183][  0]LogConfig: Setting CVar [[s.LevelStreamingComponentsUnregistrationGranularity:5]]
[2020.12.31-12.50.27:183][  0]LogConfig: Setting CVar [[s.FlushStreamingOnExit:1]]
[2020.12.31-12.50.27:183][  0]LogConfig: Applying CVar settings from Section [/Script/Engine.GarbageCollectionSettings] File [D:/ProjectG/Game/Saved/Config/Windows/Engine.ini]
[2020.12.31-12.50.27:183][  0]LogConfig: Setting CVar [[gc.MaxObjectsNotConsideredByGC:1]]
[2020.12.31-12.50.27:183][  0]LogConfig: Setting CVar [[gc.SizeOfPermanentObjectPool:0]]
[2020.12.31-12.50.27:183][  0]LogConfig: Setting CVar [[gc.FlushStreamingOnGC:0]]
[2020.12.31-12.50.27:183][  0]LogConfig: Setting CVar [[gc.NumRetriesBeforeForcingGC:10]]
[2020.12.31-12.50.27:183][  0]LogConfig: Setting CVar [[gc.AllowParallelGC:1]]
[2020.12.31-12.50.27:183][  0]LogConfig: Setting CVar [[gc.TimeBetweenPurgingPendingKillObjects:61.1]]
[2020.12.31-12.50.27:183][  0]LogConfig: Setting CVar [[gc.MaxObjectsInEditor:25165824]]
[2020.12.31-12.50.27:183][  0]LogConfig: Setting CVar [[gc.IncrementalBeginDestroyEnabled:1]]
[2020.12.31-12.50.27:183][  0]LogConfig: Setting CVar [[gc.CreateGCClusters:1]]
[2020.12.31-12.50.27:183][  0]LogConfig: Setting CVar [[gc.MinGCClusterSize:5]]
[2020.12.31-12.50.27:183][  0]LogConfig: Setting CVar [[gc.ActorClusteringEnabled:0]]
[2020.12.31-12.50.27:183][  0]LogConfig: Setting CVar [[gc.BlueprintClusteringEnabled:0]]
[2020.12.31-12.50.27:183][  0]LogConfig: Setting CVar [[gc.UseDisregardForGCOnDedicatedServers:0]]
[2020.12.31-12.50.27:183][  0]LogConfig: Setting CVar [[gc.MultithreadedDestructionEnabled:1]]
[2020.12.31-12.50.27:183][  0]LogConfig: Applying CVar settings from Section [/Script/Engine.NetworkSettings] File [D:/ProjectG/Game/Saved/Config/Windows/Engine.ini]
[2020.12.31-12.50.27:183][  0]LogConfig: Applying CVar settings from Section [/Script/UnrealEd.CookerSettings] File [D:/ProjectG/Game/Saved/Config/Windows/Engine.ini]
[2020.12.31-12.50.27:188][  0]LogConfig: Applying CVar settings from Section [ViewDistanceQuality@3] File [D:/ProjectG/Game/Saved/Config/Windows/Scalability.ini]
[2020.12.31-12.50.27:188][  0]LogConfig: Setting CVar [[r.SkeletalMeshLODBias:0]]
[2020.12.31-12.50.27:188][  0]LogConfig: Setting CVar [[r.ViewDistanceScale:1.0]]
[2020.12.31-12.50.27:188][  0]LogConfig: Applying CVar settings from Section [AntiAliasingQuality@3] File [D:/ProjectG/Game/Saved/Config/Windows/Scalability.ini]
[2020.12.31-12.50.27:188][  0]LogConfig: Setting CVar [[r.PostProcessAAQuality:4]]
[2020.12.31-12.50.27:188][  0]LogConfig: Applying CVar settings from Section [ShadowQuality@3] File [D:/ProjectG/Game/Saved/Config/Windows/Scalability.ini]
[2020.12.31-12.50.27:188][  0]LogConfig: Setting CVar [[r.LightFunctionQuality:1]]
[2020.12.31-12.50.27:188][  0]LogConfig: Setting CVar [[r.ShadowQuality:5]]
[2020.12.31-12.50.27:188][  0]LogConfig: Setting CVar [[r.Shadow.CSM.MaxCascades:10]]
[2020.12.31-12.50.27:188][  0]LogConfig: Setting CVar [[r.Shadow.MaxResolution:2048]]
[2020.12.31-12.50.27:188][  0]LogConfig: Setting CVar [[r.Shadow.MaxCSMResolution:2048]]
[2020.12.31-12.50.27:188][  0]LogConfig: Setting CVar [[r.Shadow.RadiusThreshold:0.01]]
[2020.12.31-12.50.27:188][  0]LogConfig: Setting CVar [[r.Shadow.DistanceScale:1.0]]
[2020.12.31-12.50.27:188][  0]LogConfig: Setting CVar [[r.Shadow.CSM.TransitionScale:1.0]]
[2020.12.31-12.50.27:189][  0]LogConfig: Setting CVar [[r.Shadow.PreShadowResolutionFactor:1.0]]
[2020.12.31-12.50.27:189][  0]LogConfig: Setting CVar [[r.DistanceFieldShadowing:1]]
[2020.12.31-12.50.27:189][  0]LogConfig: Setting CVar [[r.DistanceFieldAO:1]]
[2020.12.31-12.50.27:189][  0]LogConfig: Setting CVar [[r.AOQuality:2]]
[2020.12.31-12.50.27:189][  0]LogConfig: Setting CVar [[r.VolumetricFog:1]]
[2020.12.31-12.50.27:189][  0]LogConfig: Setting CVar [[r.VolumetricFog.GridPixelSize:8]]
[2020.12.31-12.50.27:189][  0]LogConfig: Setting CVar [[r.VolumetricFog.GridSizeZ:128]]
[2020.12.31-12.50.27:189][  0]LogConfig: Setting CVar [[r.VolumetricFog.HistoryMissSupersampleCount:4]]
[2020.12.31-12.50.27:189][  0]LogConfig: Setting CVar [[r.LightMaxDrawDistanceScale:1]]
[2020.12.31-12.50.27:189][  0]LogConfig: Setting CVar [[r.CapsuleShadows:1]]
[2020.12.31-12.50.27:189][  0]LogConfig: Applying CVar settings from Section [PostProcessQuality@3] File [D:/ProjectG/Game/Saved/Config/Windows/Scalability.ini]
[2020.12.31-12.50.27:189][  0]LogConfig: Setting CVar [[r.MotionBlurQuality:4]]
[2020.12.31-12.50.27:189][  0]LogConfig: Setting CVar [[r.AmbientOcclusionMipLevelFactor:0.4]]
[2020.12.31-12.50.27:189][  0]LogConfig: Setting CVar [[r.AmbientOcclusionMaxQuality:100]]
[2020.12.31-12.50.27:189][  0]LogConfig: Setting CVar [[r.AmbientOcclusionLevels:-1]]
[2020.12.31-12.50.27:189][  0]LogConfig: Setting CVar [[r.AmbientOcclusionRadiusScale:1.0]]
[2020.12.31-12.50.27:189][  0]LogConfig: Setting CVar [[r.DepthOfFieldQuality:2]]
[2020.12.31-12.50.27:189][  0]LogConfig: Setting CVar [[r.RenderTargetPoolMin:400]]
[2020.12.31-12.50.27:189][  0]LogConfig: Setting CVar [[r.LensFlareQuality:2]]
[2020.12.31-12.50.27:189][  0]LogConfig: Setting CVar [[r.SceneColorFringeQuality:1]]
[2020.12.31-12.50.27:189][  0]LogConfig: Setting CVar [[r.EyeAdaptationQuality:2]]
[2020.12.31-12.50.27:189][  0]LogConfig: Setting CVar [[r.BloomQuality:5]]
[2020.12.31-12.50.27:189][  0]LogConfig: Setting CVar [[r.FastBlurThreshold:100]]
[2020.12.31-12.50.27:189][  0]LogConfig: Setting CVar [[r.Upscale.Quality:3]]
[2020.12.31-12.50.27:189][  0]LogConfig: Setting CVar [[r.Tonemapper.GrainQuantization:1]]
[2020.12.31-12.50.27:189][  0]LogConfig: Setting CVar [[r.LightShaftQuality:1]]
[2020.12.31-12.50.27:189][  0]LogConfig: Setting CVar [[r.Filter.SizeScale:1]]
[2020.12.31-12.50.27:189][  0]LogConfig: Setting CVar [[r.Tonemapper.Quality:5]]
[2020.12.31-12.50.27:189][  0]LogConfig: Setting CVar [[r.DOF.Gather.AccumulatorQuality:1        ; higher gathering accumulator quality]]
[2020.12.31-12.50.27:189][  0]LogConfig: Setting CVar [[r.DOF.Gather.PostfilterMethod:1          ; Median3x3 postfilering method]]
[2020.12.31-12.50.27:189][  0]LogConfig: Setting CVar [[r.DOF.Gather.EnableBokehSettings:0       ; no bokeh simulation when gathering]]
[2020.12.31-12.50.27:189][  0]LogConfig: Setting CVar [[r.DOF.Gather.RingCount:4                 ; medium number of samples when gathering]]
[2020.12.31-12.50.27:189][  0]LogConfig: Setting CVar [[r.DOF.Scatter.ForegroundCompositing:1    ; additive foreground scattering]]
[2020.12.31-12.50.27:189][  0]LogConfig: Setting CVar [[r.DOF.Scatter.BackgroundCompositing:2    ; additive background scattering]]
[2020.12.31-12.50.27:189][  0]LogConfig: Setting CVar [[r.DOF.Scatter.EnableBokehSettings:1      ; bokeh simulation when scattering]]
[2020.12.31-12.50.27:189][  0]LogConfig: Setting CVar [[r.DOF.Scatter.MaxSpriteRatio:0.1         ; only a maximum of 10% of scattered bokeh]]
[2020.12.31-12.50.27:189][  0]LogConfig: Setting CVar [[r.DOF.Recombine.Quality:1                ; cheap slight out of focus]]
[2020.12.31-12.50.27:189][  0]LogConfig: Setting CVar [[r.DOF.Recombine.EnableBokehSettings:0    ; no bokeh simulation on slight out of focus]]
[2020.12.31-12.50.27:189][  0]LogConfig: Setting CVar [[r.DOF.TemporalAAQuality:1                ; more stable temporal accumulation]]
[2020.12.31-12.50.27:189][  0]LogConfig: Setting CVar [[r.DOF.Kernel.MaxForegroundRadius:0.025]]
[2020.12.31-12.50.27:189][  0]LogConfig: Setting CVar [[r.DOF.Kernel.MaxBackgroundRadius:0.025]]
[2020.12.31-12.50.27:189][  0]LogConfig: Applying CVar settings from Section [TextureQuality@3] File [D:/ProjectG/Game/Saved/Config/Windows/Scalability.ini]
[2020.12.31-12.50.27:189][  0]LogConfig: Setting CVar [[r.Streaming.MipBias:0]]
[2020.12.31-12.50.27:189][  0]LogConfig: Setting CVar [[r.Streaming.AmortizeCPUToGPUCopy:0]]
[2020.12.31-12.50.27:189][  0]LogConfig: Setting CVar [[r.Streaming.MaxNumTexturesToStreamPerFrame:0]]
[2020.12.31-12.50.27:189][  0]LogConfig: Setting CVar [[r.Streaming.Boost:1]]
[2020.12.31-12.50.27:189][  0]LogConfig: Setting CVar [[r.MaxAnisotropy:8]]
[2020.12.31-12.50.27:189][  0]LogConfig: Setting CVar [[r.VT.MaxAnisotropy:8]]
[2020.12.31-12.50.27:189][  0]LogConfig: Setting CVar [[r.Streaming.LimitPoolSizeToVRAM:0]]
[2020.12.31-12.50.27:189][  0]LogConfig: Setting CVar [[r.Streaming.PoolSize:1000]]
[2020.12.31-12.50.27:189][  0]LogConfig: Setting CVar [[r.Streaming.MaxEffectiveScreenSize:0]]
[2020.12.31-12.50.27:189][  0]LogConfig: Applying CVar settings from Section [EffectsQuality@3] File [D:/ProjectG/Game/Saved/Config/Windows/Scalability.ini]
[2020.12.31-12.50.27:189][  0]LogConfig: Setting CVar [[r.TranslucencyLightingVolumeDim:64]]
[2020.12.31-12.50.27:189][  0]LogConfig: Setting CVar [[r.RefractionQuality:2]]
[2020.12.31-12.50.27:189][  0]LogConfig: Setting CVar [[r.SSR.Quality:3]]
[2020.12.31-12.50.27:189][  0]LogConfig: Setting CVar [[r.SSR.HalfResSceneColor:0]]
[2020.12.31-12.50.27:189][  0]LogConfig: Setting CVar [[r.SceneColorFormat:4]]
[2020.12.31-12.50.27:189][  0]LogConfig: Setting CVar [[r.DetailMode:2]]
[2020.12.31-12.50.27:189][  0]LogConfig: Setting CVar [[r.TranslucencyVolumeBlur:1]]
[2020.12.31-12.50.27:189][  0]LogConfig: Setting CVar [[r.MaterialQualityLevel:1 ; High quality]]
[2020.12.31-12.50.27:189][  0]LogConfig: Setting CVar [[r.AnisotropicMaterials:1]]
[2020.12.31-12.50.27:189][  0]LogConfig: Setting CVar [[r.SSS.Scale:1]]
[2020.12.31-12.50.27:189][  0]LogConfig: Setting CVar [[r.SSS.SampleSet:2]]
[2020.12.31-12.50.27:189][  0]LogConfig: Setting CVar [[r.SSS.Quality:1]]
[2020.12.31-12.50.27:189][  0]LogConfig: Setting CVar [[r.SSS.HalfRes:0]]
[2020.12.31-12.50.27:189][  0]LogConfig: Setting CVar [[r.SSGI.Quality:3]]
[2020.12.31-12.50.27:189][  0]LogConfig: Setting CVar [[r.EmitterSpawnRateScale:1.0]]
[2020.12.31-12.50.27:189][  0]LogConfig: Setting CVar [[r.ParticleLightQuality:2]]
[2020.12.31-12.50.27:189][  0]LogConfig: Setting CVar [[r.SkyAtmosphere.AerialPerspectiveLUT.FastApplyOnOpaque:1 ; Always have FastSkyLUT 1 in this case to avoid wrong sky]]
[2020.12.31-12.50.27:189][  0]LogConfig: Setting CVar [[r.SkyAtmosphere.AerialPerspectiveLUT.SampleCountMaxPerSlice:4]]
[2020.12.31-12.50.27:189][  0]LogConfig: Setting CVar [[r.SkyAtmosphere.AerialPerspectiveLUT.DepthResolution:16.0]]
[2020.12.31-12.50.27:189][  0]LogConfig: Setting CVar [[r.SkyAtmosphere.FastSkyLUT:1]]
[2020.12.31-12.50.27:189][  0]LogConfig: Setting CVar [[r.SkyAtmosphere.FastSkyLUT.SampleCountMin:4.0]]
[2020.12.31-12.50.27:189][  0]LogConfig: Setting CVar [[r.SkyAtmosphere.FastSkyLUT.SampleCountMax:128.0]]
[2020.12.31-12.50.27:189][  0]LogConfig: Setting CVar [[r.SkyAtmosphere.SampleCountMin:4.0]]
[2020.12.31-12.50.27:189][  0]LogConfig: Setting CVar [[r.SkyAtmosphere.SampleCountMax:128.0]]
[2020.12.31-12.50.27:189][  0]LogConfig: Setting CVar [[r.SkyAtmosphere.TransmittanceLUT.UseSmallFormat:0]]
[2020.12.31-12.50.27:189][  0]LogConfig: Setting CVar [[r.SkyAtmosphere.TransmittanceLUT.SampleCount:10.0]]
[2020.12.31-12.50.27:189][  0]LogConfig: Setting CVar [[r.SkyAtmosphere.MultiScatteringLUT.SampleCount:15.0]]
[2020.12.31-12.50.27:189][  0]LogConfig: Applying CVar settings from Section [FoliageQuality@3] File [D:/ProjectG/Game/Saved/Config/Windows/Scalability.ini]
[2020.12.31-12.50.27:189][  0]LogConfig: Setting CVar [[foliage.DensityScale:1.0]]
[2020.12.31-12.50.27:189][  0]LogConfig: Setting CVar [[grass.DensityScale:1.0]]
[2020.12.31-12.50.27:189][  0]LogConfig: Applying CVar settings from Section [ShadingQuality@3] File [D:/ProjectG/Game/Saved/Config/Windows/Scalability.ini]
[2020.12.31-12.50.27:189][  0]LogConfig: Setting CVar [[r.HairStrands.SkyLighting.IntegrationType:2]]
[2020.12.31-12.50.27:189][  0]LogConfig: Setting CVar [[r.HairStrands.SkyAO.SampleCount:4]]
[2020.12.31-12.50.27:189][  0]LogConfig: Setting CVar [[r.HairStrands.Visibility.MSAA.SamplePerPixel:4]]
[2020.12.31-12.50.27:189][  0]LogInit: Selected Device Profile: [Windows]
[2020.12.31-12.50.27:189][  0]LogInit: Applying CVar settings loaded from the selected device profile: [Windows]
[2020.12.31-12.50.27:190][  0]LogHAL: Display: Platform has ~ 16 GB [17106518016 / 17179869184 / 16], which maps to Larger [LargestMinGB=32, LargerMinGB=12, DefaultMinGB=8, SmallerMinGB=6, SmallestMinGB=0)
[2020.12.31-12.50.27:190][  0]LogInit: Going up to parent DeviceProfile []
[2020.12.31-12.50.27:190][  0]LogConfig: Applying CVar settings from Section [ViewDistanceQuality@3] File [D:/ProjectG/Game/Saved/Config/Windows/Scalability.ini]
[2020.12.31-12.50.27:190][  0]LogConfig: Setting CVar [[r.SkeletalMeshLODBias:0]]
[2020.12.31-12.50.27:190][  0]LogConfig: Setting CVar [[r.ViewDistanceScale:1.0]]
[2020.12.31-12.50.27:190][  0]LogConfig: Applying CVar settings from Section [AntiAliasingQuality@3] File [D:/ProjectG/Game/Saved/Config/Windows/Scalability.ini]
[2020.12.31-12.50.27:190][  0]LogConfig: Setting CVar [[r.PostProcessAAQuality:4]]
[2020.12.31-12.50.27:190][  0]LogConfig: Applying CVar settings from Section [ShadowQuality@3] File [D:/ProjectG/Game/Saved/Config/Windows/Scalability.ini]
[2020.12.31-12.50.27:190][  0]LogConfig: Setting CVar [[r.LightFunctionQuality:1]]
[2020.12.31-12.50.27:190][  0]LogConfig: Setting CVar [[r.ShadowQuality:5]]
[2020.12.31-12.50.27:190][  0]LogConfig: Setting CVar [[r.Shadow.CSM.MaxCascades:10]]
[2020.12.31-12.50.27:190][  0]LogConfig: Setting CVar [[r.Shadow.MaxResolution:2048]]
[2020.12.31-12.50.27:190][  0]LogConfig: Setting CVar [[r.Shadow.MaxCSMResolution:2048]]
[2020.12.31-12.50.27:190][  0]LogConfig: Setting CVar [[r.Shadow.RadiusThreshold:0.01]]
[2020.12.31-12.50.27:190][  0]LogConfig: Setting CVar [[r.Shadow.DistanceScale:1.0]]
[2020.12.31-12.50.27:190][  0]LogConfig: Setting CVar [[r.Shadow.CSM.TransitionScale:1.0]]
[2020.12.31-12.50.27:190][  0]LogConfig: Setting CVar [[r.Shadow.PreShadowResolutionFactor:1.0]]
[2020.12.31-12.50.27:190][  0]LogConfig: Setting CVar [[r.DistanceFieldShadowing:1]]
[2020.12.31-12.50.27:190][  0]LogConfig: Setting CVar [[r.DistanceFieldAO:1]]
[2020.12.31-12.50.27:190][  0]LogConfig: Setting CVar [[r.AOQuality:2]]
[2020.12.31-12.50.27:190][  0]LogConfig: Setting CVar [[r.VolumetricFog:1]]
[2020.12.31-12.50.27:190][  0]LogConfig: Setting CVar [[r.VolumetricFog.GridPixelSize:8]]
[2020.12.31-12.50.27:190][  0]LogConfig: Setting CVar [[r.VolumetricFog.GridSizeZ:128]]
[2020.12.31-12.50.27:190][  0]LogConfig: Setting CVar [[r.VolumetricFog.HistoryMissSupersampleCount:4]]
[2020.12.31-12.50.27:190][  0]LogConfig: Setting CVar [[r.LightMaxDrawDistanceScale:1]]
[2020.12.31-12.50.27:190][  0]LogConfig: Setting CVar [[r.CapsuleShadows:1]]
[2020.12.31-12.50.27:190][  0]LogConfig: Applying CVar settings from Section [PostProcessQuality@3] File [D:/ProjectG/Game/Saved/Config/Windows/Scalability.ini]
[2020.12.31-12.50.27:190][  0]LogConfig: Setting CVar [[r.MotionBlurQuality:4]]
[2020.12.31-12.50.27:190][  0]LogConfig: Setting CVar [[r.AmbientOcclusionMipLevelFactor:0.4]]
[2020.12.31-12.50.27:190][  0]LogConfig: Setting CVar [[r.AmbientOcclusionMaxQuality:100]]
[2020.12.31-12.50.27:190][  0]LogConfig: Setting CVar [[r.AmbientOcclusionLevels:-1]]
[2020.12.31-12.50.27:190][  0]LogConfig: Setting CVar [[r.AmbientOcclusionRadiusScale:1.0]]
[2020.12.31-12.50.27:190][  0]LogConfig: Setting CVar [[r.DepthOfFieldQuality:2]]
[2020.12.31-12.50.27:190][  0]LogConfig: Setting CVar [[r.RenderTargetPoolMin:400]]
[2020.12.31-12.50.27:190][  0]LogConfig: Setting CVar [[r.LensFlareQuality:2]]
[2020.12.31-12.50.27:190][  0]LogConfig: Setting CVar [[r.SceneColorFringeQuality:1]]
[2020.12.31-12.50.27:190][  0]LogConfig: Setting CVar [[r.EyeAdaptationQuality:2]]
[2020.12.31-12.50.27:190][  0]LogConfig: Setting CVar [[r.BloomQuality:5]]
[2020.12.31-12.50.27:190][  0]LogConfig: Setting CVar [[r.FastBlurThreshold:100]]
[2020.12.31-12.50.27:190][  0]LogConfig: Setting CVar [[r.Upscale.Quality:3]]
[2020.12.31-12.50.27:190][  0]LogConfig: Setting CVar [[r.Tonemapper.GrainQuantization:1]]
[2020.12.31-12.50.27:190][  0]LogConfig: Setting CVar [[r.LightShaftQuality:1]]
[2020.12.31-12.50.27:190][  0]LogConfig: Setting CVar [[r.Filter.SizeScale:1]]
[2020.12.31-12.50.27:190][  0]LogConfig: Setting CVar [[r.Tonemapper.Quality:5]]
[2020.12.31-12.50.27:190][  0]LogConfig: Setting CVar [[r.DOF.Gather.AccumulatorQuality:1        ; higher gathering accumulator quality]]
[2020.12.31-12.50.27:190][  0]LogConfig: Setting CVar [[r.DOF.Gather.PostfilterMethod:1          ; Median3x3 postfilering method]]
[2020.12.31-12.50.27:190][  0]LogConfig: Setting CVar [[r.DOF.Gather.EnableBokehSettings:0       ; no bokeh simulation when gathering]]
[2020.12.31-12.50.27:190][  0]LogConfig: Setting CVar [[r.DOF.Gather.RingCount:4                 ; medium number of samples when gathering]]
[2020.12.31-12.50.27:190][  0]LogConfig: Setting CVar [[r.DOF.Scatter.ForegroundCompositing:1    ; additive foreground scattering]]
[2020.12.31-12.50.27:190][  0]LogConfig: Setting CVar [[r.DOF.Scatter.BackgroundCompositing:2    ; additive background scattering]]
[2020.12.31-12.50.27:190][  0]LogConfig: Setting CVar [[r.DOF.Scatter.EnableBokehSettings:1      ; bokeh simulation when scattering]]
[2020.12.31-12.50.27:190][  0]LogConfig: Setting CVar [[r.DOF.Scatter.MaxSpriteRatio:0.1         ; only a maximum of 10% of scattered bokeh]]
[2020.12.31-12.50.27:190][  0]LogConfig: Setting CVar [[r.DOF.Recombine.Quality:1                ; cheap slight out of focus]]
[2020.12.31-12.50.27:190][  0]LogConfig: Setting CVar [[r.DOF.Recombine.EnableBokehSettings:0    ; no bokeh simulation on slight out of focus]]
[2020.12.31-12.50.27:190][  0]LogConfig: Setting CVar [[r.DOF.TemporalAAQuality:1                ; more stable temporal accumulation]]
[2020.12.31-12.50.27:190][  0]LogConfig: Setting CVar [[r.DOF.Kernel.MaxForegroundRadius:0.025]]
[2020.12.31-12.50.27:190][  0]LogConfig: Setting CVar [[r.DOF.Kernel.MaxBackgroundRadius:0.025]]
[2020.12.31-12.50.27:190][  0]LogConfig: Applying CVar settings from Section [TextureQuality@3] File [D:/ProjectG/Game/Saved/Config/Windows/Scalability.ini]
[2020.12.31-12.50.27:190][  0]LogConfig: Setting CVar [[r.Streaming.MipBias:0]]
[2020.12.31-12.50.27:190][  0]LogConfig: Setting CVar [[r.Streaming.AmortizeCPUToGPUCopy:0]]
[2020.12.31-12.50.27:190][  0]LogConfig: Setting CVar [[r.Streaming.MaxNumTexturesToStreamPerFrame:0]]
[2020.12.31-12.50.27:190][  0]LogConfig: Setting CVar [[r.Streaming.Boost:1]]
[2020.12.31-12.50.27:190][  0]LogConfig: Setting CVar [[r.MaxAnisotropy:8]]
[2020.12.31-12.50.27:190][  0]LogConfig: Setting CVar [[r.VT.MaxAnisotropy:8]]
[2020.12.31-12.50.27:190][  0]LogConfig: Setting CVar [[r.Streaming.LimitPoolSizeToVRAM:0]]
[2020.12.31-12.50.27:190][  0]LogConfig: Setting CVar [[r.Streaming.PoolSize:1000]]
[2020.12.31-12.50.27:190][  0]LogConfig: Setting CVar [[r.Streaming.MaxEffectiveScreenSize:0]]
[2020.12.31-12.50.27:190][  0]LogConfig: Applying CVar settings from Section [EffectsQuality@3] File [D:/ProjectG/Game/Saved/Config/Windows/Scalability.ini]
[2020.12.31-12.50.27:190][  0]LogConfig: Setting CVar [[r.TranslucencyLightingVolumeDim:64]]
[2020.12.31-12.50.27:190][  0]LogConfig: Setting CVar [[r.RefractionQuality:2]]
[2020.12.31-12.50.27:190][  0]LogConfig: Setting CVar [[r.SSR.Quality:3]]
[2020.12.31-12.50.27:190][  0]LogConfig: Setting CVar [[r.SSR.HalfResSceneColor:0]]
[2020.12.31-12.50.27:190][  0]LogConfig: Setting CVar [[r.SceneColorFormat:4]]
[2020.12.31-12.50.27:190][  0]LogConfig: Setting CVar [[r.DetailMode:2]]
[2020.12.31-12.50.27:190][  0]LogConfig: Setting CVar [[r.TranslucencyVolumeBlur:1]]
[2020.12.31-12.50.27:190][  0]LogConfig: Setting CVar [[r.MaterialQualityLevel:1 ; High quality]]
[2020.12.31-12.50.27:190][  0]LogConfig: Setting CVar [[r.AnisotropicMaterials:1]]
[2020.12.31-12.50.27:190][  0]LogConfig: Setting CVar [[r.SSS.Scale:1]]
[2020.12.31-12.50.27:190][  0]LogConfig: Setting CVar [[r.SSS.SampleSet:2]]
[2020.12.31-12.50.27:190][  0]LogConfig: Setting CVar [[r.SSS.Quality:1]]
[2020.12.31-12.50.27:190][  0]LogConfig: Setting CVar [[r.SSS.HalfRes:0]]
[2020.12.31-12.50.27:190][  0]LogConfig: Setting CVar [[r.SSGI.Quality:3]]
[2020.12.31-12.50.27:190][  0]LogConfig: Setting CVar [[r.EmitterSpawnRateScale:1.0]]
[2020.12.31-12.50.27:190][  0]LogConfig: Setting CVar [[r.ParticleLightQuality:2]]
[2020.12.31-12.50.27:190][  0]LogConfig: Setting CVar [[r.SkyAtmosphere.AerialPerspectiveLUT.FastApplyOnOpaque:1 ; Always have FastSkyLUT 1 in this case to avoid wrong sky]]
[2020.12.31-12.50.27:190][  0]LogConfig: Setting CVar [[r.SkyAtmosphere.AerialPerspectiveLUT.SampleCountMaxPerSlice:4]]
[2020.12.31-12.50.27:191][  0]LogConfig: Setting CVar [[r.SkyAtmosphere.AerialPerspectiveLUT.DepthResolution:16.0]]
[2020.12.31-12.50.27:191][  0]LogConfig: Setting CVar [[r.SkyAtmosphere.FastSkyLUT:1]]
[2020.12.31-12.50.27:191][  0]LogConfig: Setting CVar [[r.SkyAtmosphere.FastSkyLUT.SampleCountMin:4.0]]
[2020.12.31-12.50.27:191][  0]LogConfig: Setting CVar [[r.SkyAtmosphere.FastSkyLUT.SampleCountMax:128.0]]
[2020.12.31-12.50.27:191][  0]LogConfig: Setting CVar [[r.SkyAtmosphere.SampleCountMin:4.0]]
[2020.12.31-12.50.27:191][  0]LogConfig: Setting CVar [[r.SkyAtmosphere.SampleCountMax:128.0]]
[2020.12.31-12.50.27:191][  0]LogConfig: Setting CVar [[r.SkyAtmosphere.TransmittanceLUT.UseSmallFormat:0]]
[2020.12.31-12.50.27:191][  0]LogConfig: Setting CVar [[r.SkyAtmosphere.TransmittanceLUT.SampleCount:10.0]]
[2020.12.31-12.50.27:191][  0]LogConfig: Setting CVar [[r.SkyAtmosphere.MultiScatteringLUT.SampleCount:15.0]]
[2020.12.31-12.50.27:191][  0]LogConfig: Applying CVar settings from Section [FoliageQuality@3] File [D:/ProjectG/Game/Saved/Config/Windows/Scalability.ini]
[2020.12.31-12.50.27:191][  0]LogConfig: Setting CVar [[foliage.DensityScale:1.0]]
[2020.12.31-12.50.27:191][  0]LogConfig: Setting CVar [[grass.DensityScale:1.0]]
[2020.12.31-12.50.27:191][  0]LogConfig: Applying CVar settings from Section [ShadingQuality@3] File [D:/ProjectG/Game/Saved/Config/Windows/Scalability.ini]
[2020.12.31-12.50.27:191][  0]LogConfig: Setting CVar [[r.HairStrands.SkyLighting.IntegrationType:2]]
[2020.12.31-12.50.27:191][  0]LogConfig: Setting CVar [[r.HairStrands.SkyAO.SampleCount:4]]
[2020.12.31-12.50.27:191][  0]LogConfig: Setting CVar [[r.HairStrands.Visibility.MSAA.SamplePerPixel:4]]
[2020.12.31-12.50.27:191][  0]LogConfig: Applying CVar settings from Section [Startup] File [../../../Engine/Config/ConsoleVariables.ini]
[2020.12.31-12.50.27:191][  0]LogConfig: Setting CVar [[net.UseAdaptiveNetUpdateFrequency:0]]
[2020.12.31-12.50.27:191][  0]LogConfig: Setting CVar [[p.chaos.AllowCreatePhysxBodies:1]]
[2020.12.31-12.50.27:191][  0]LogConfig: Setting CVar [[fx.SkipVectorVMBackendOptimizations:1]]
[2020.12.31-12.50.27:191][  0]LogConfig: Applying CVar settings from Section [ConsoleVariables] File [D:/ProjectG/Game/Saved/Config/Windows/Engine.ini]
[2020.12.31-12.50.27:191][  0]LogInit: Computer: DESKTOP-RBLU55V
[2020.12.31-12.50.27:191][  0]LogInit: User: HaiQin
[2020.12.31-12.50.27:191][  0]LogInit: CPU Page size=4096, Cores=6
[2020.12.31-12.50.27:191][  0]LogInit: High frequency timer resolution =10.000000 MHz
[2020.12.31-12.50.27:191][  0]LogMemory: Memory total: Physical=15.9GB (16GB approx)
[2020.12.31-12.50.27:191][  0]LogMemory: Platform Memory Stats for Windows
[2020.12.31-12.50.27:191][  0]LogMemory: Process Physical Memory: 133.28 MB used, 133.29 MB peak
[2020.12.31-12.50.27:191][  0]LogMemory: Process Virtual Memory: 120.48 MB used, 120.48 MB peak
[2020.12.31-12.50.27:191][  0]LogMemory: Physical Memory: 10870.47 MB used,  5443.58 MB free, 16314.05 MB total
[2020.12.31-12.50.27:191][  0]LogMemory: Virtual Memory: 134206944.00 MB used,  10780.56 MB free, 134217728.00 MB total
[2020.12.31-12.50.27:195][  0]LogWindows: WindowsPlatformFeatures enabled
[2020.12.31-12.50.27:227][  0]LogInit: Physics initialised using underlying interface: PhysX
[2020.12.31-12.50.27:227][  0]LogInit: Using OS detected language (en-US).
[2020.12.31-12.50.27:227][  0]LogInit: Using OS detected locale (en-US).
[2020.12.31-12.50.27:230][  0]LogTextLocalizationManager: No specific localization for 'en-US' exists, so the 'en' localization will be used.
[2020.12.31-12.50.27:389][  0]LogWindowsTextInputMethodSystem: Display: IME system deactivated.
[2020.12.31-12.50.27:406][  0]LogSlate: New Slate User Created.  User Index 0, Is Virtual User: 0
[2020.12.31-12.50.27:406][  0]LogSlate: Slate User Registered.  User Index 0, Is Virtual User: 0
[2020.12.31-12.50.27:416][  0]LogHMD: Failed to initialize OpenVR with code 110
[2020.12.31-12.50.27:416][  0]LogD3D11RHI: D3D11 min allowed feature level: 11_0
[2020.12.31-12.50.27:416][  0]LogD3D11RHI: D3D11 max allowed feature level: 11_0
[2020.12.31-12.50.27:416][  0]LogD3D11RHI: D3D11 adapters:
[2020.12.31-12.50.27:510][  0]LogD3D11RHI:    0. 'NVIDIA GeForce RTX 2070' (Feature Level 11_0)
[2020.12.31-12.50.27:510][  0]LogD3D11RHI:       8031/0/8157 MB DedicatedVideo/DedicatedSystem/SharedSystem, Outputs:1, VendorId:0x10de
[2020.12.31-12.50.27:512][  0]LogD3D11RHI:    1. 'Microsoft Basic Render Driver' (Feature Level 11_0)
[2020.12.31-12.50.27:512][  0]LogD3D11RHI:       0/0/8157 MB DedicatedVideo/DedicatedSystem/SharedSystem, Outputs:0, VendorId:0x1414
[2020.12.31-12.50.27:512][  0]LogD3D11RHI: Chosen D3D11 Adapter: 0
[2020.12.31-12.50.27:518][  0]LogD3D11RHI: Creating new Direct3DDevice
[2020.12.31-12.50.27:518][  0]LogD3D11RHI:     GPU DeviceId: 0x1f02 (for the marketing name, search the web for "GPU Device Id")
[2020.12.31-12.50.27:519][  0]LogWindows: EnumDisplayDevices:
[2020.12.31-12.50.27:519][  0]LogWindows:    0. 'NVIDIA GeForce RTX 2070' (P:1 D:1)
[2020.12.31-12.50.27:519][  0]LogWindows:    1. 'NVIDIA GeForce RTX 2070' (P:0 D:0)
[2020.12.31-12.50.27:519][  0]LogWindows:    2. 'NVIDIA GeForce RTX 2070' (P:0 D:0)
[2020.12.31-12.50.27:519][  0]LogWindows:    3. 'NVIDIA GeForce RTX 2070' (P:0 D:0)
[2020.12.31-12.50.27:519][  0]LogWindows: DebugString: FoundDriverCount:4 
[2020.12.31-12.50.27:519][  0]LogD3D11RHI:     Adapter Name: NVIDIA GeForce RTX 2070
[2020.12.31-12.50.27:519][  0]LogD3D11RHI:   Driver Version: 460.89 (internal:27.21.14.6089, unified:460.89)
[2020.12.31-12.50.27:519][  0]LogD3D11RHI:      Driver Date: 12-11-2020
[2020.12.31-12.50.27:519][  0]LogRHI: Texture pool is 5621 MB (70% of 8031 MB)
[2020.12.31-12.50.27:599][  0]LogD3D11RHI: RHI has support for 64 bit atomics
[2020.12.31-12.50.27:599][  0]LogD3D11RHI: Async texture creation enabled
[2020.12.31-12.50.27:599][  0]LogD3D11RHI: Array index from any shader is supported
[2020.12.31-12.50.27:600][  0]LogD3D11RHI: HDR output is supported on display 0 (NvId: 0x80061083).
[2020.12.31-12.50.27:622][  0]LogD3D11RHI: GPU Timing Frequency: 1000.000000 (Debug: 2 2)
[2020.12.31-12.50.27:623][  0]LogRHI: GeForceNow SDK initialized: 1
[2020.12.31-12.50.27:859][  0]LogTargetPlatformManager: Display: Loaded TargetPlatform 'WindowsNoEditor'
[2020.12.31-12.50.27:863][  0]LogTargetPlatformManager: Display: Loaded TargetPlatform 'Windows'
[2020.12.31-12.50.27:870][  0]LogTargetPlatformManager: Display: Loaded TargetPlatform 'WindowsClient'
[2020.12.31-12.50.27:877][  0]LogTargetPlatformManager: Display: Loaded TargetPlatform 'WindowsServer'
[2020.12.31-12.50.27:877][  0]LogTargetPlatformManager: Display: Building Assets For Windows
[2020.12.31-12.50.27:882][  0]LogAudioDebug: Display: Lib vorbis DLL was dynamically loaded.
[2020.12.31-12.50.27:926][  0]LogRendererCore: Ray tracing is disabled. Reason: r.RayTracing=0.
[2020.12.31-12.50.27:926][  0]LogShaderCompilers: Guid format shader working directory is 30 characters bigger than the processId version (D:/ProjectG/Game/Intermediate/Shaders/WorkingDirectory/19920/).
[2020.12.31-12.50.27:927][  0]LogShaderCompilers: Cleaned the shader compiler working directory 'C:/Users/HaiQin/AppData/Local/Temp/UnrealShaderWorkingDir/8AB7CE3C45AE4FBF4ED36B8D894F6FE4/'.
[2020.12.31-12.50.27:927][  0]LogShaderCompilers: Cannot use XGE Shader Compiler as Incredibuild is not installed on this machine.
[2020.12.31-12.50.27:927][  0]LogShaderCompilers: Display: Using Local Shader Compiler.
[2020.12.31-12.50.28:637][  0]LogDerivedDataCache: Display: Max Cache Size: 512 MB
[2020.12.31-12.50.28:676][  0]LogDerivedDataCache: Loaded boot cache 0.04s 77MB C:/Users/HaiQin/AppData/Local/UnrealEngine/4.26/DerivedDataCache/Boot.ddc.
[2020.12.31-12.50.28:676][  0]LogDerivedDataCache: Display: Loaded Boot cache: C:/Users/HaiQin/AppData/Local/UnrealEngine/4.26/DerivedDataCache/Boot.ddc
[2020.12.31-12.50.28:677][  0]LogDerivedDataCache: FDerivedDataBackendGraph:  Pak pak cache file D:/ProjectG/Game/DerivedDataCache/DDC.ddp not found, will not use a pak cache.
[2020.12.31-12.50.28:677][  0]LogDerivedDataCache: Unable to find inner node Pak for hierarchical cache Hierarchy.
[2020.12.31-12.50.28:677][  0]LogDerivedDataCache: FDerivedDataBackendGraph:  CompressedPak pak cache file D:/ProjectG/Game/DerivedDataCache/Compressed.ddp not found, will not use a pak cache.
[2020.12.31-12.50.28:677][  0]LogDerivedDataCache: Unable to find inner node CompressedPak for hierarchical cache Hierarchy.
[2020.12.31-12.50.28:689][  0]LogDerivedDataCache: Display: Pak cache opened for reading ../../../Engine/DerivedDataCache/Compressed.ddp.
[2020.12.31-12.50.28:689][  0]LogDerivedDataCache: FDerivedDataBackendGraph:  EnterprisePak pak cache file ../../../Enterprise/DerivedDataCache/Compressed.ddp not found, will not use a pak cache.
[2020.12.31-12.50.28:689][  0]LogDerivedDataCache: Unable to find inner node EnterprisePak for hierarchical cache Hierarchy.
[2020.12.31-12.50.28:699][  0]LogDerivedDataCache: Speed tests for C:/Users/HaiQin/AppData/Local/UnrealEngine/Common/DerivedDataCache took 0.01 seconds
[2020.12.31-12.50.28:699][  0]LogDerivedDataCache: Display: Performance to C:/Users/HaiQin/AppData/Local/UnrealEngine/Common/DerivedDataCache: Latency=0.02ms. RandomReadSpeed=353.09MBs, RandomWriteSpeed=131.96MBs. Assigned SpeedClass 'Local'
[2020.12.31-12.50.28:700][  0]LogDerivedDataCache: Using Local data cache path C:/Users/HaiQin/AppData/Local/UnrealEngine/Common/DerivedDataCache: Writable
[2020.12.31-12.50.28:700][  0]LogDerivedDataCache: Shared data cache path not found in *engine.ini, will not use an Shared cache.
[2020.12.31-12.50.28:700][  0]LogDerivedDataCache: Unable to find inner node Shared for hierarchical cache Hierarchy.
[2020.12.31-12.50.28:732][  0]LogSlate: Using FreeType 2.10.0
[2020.12.31-12.50.28:732][  0]LogSlate: SlateFontServices - WITH_FREETYPE: 1, WITH_HARFBUZZ: 1
[2020.12.31-12.50.28:790][  0]LogInit: Using OS detected language (en-US).
[2020.12.31-12.50.28:790][  0]LogInit: Using OS detected locale (en-US).
[2020.12.31-12.50.28:790][  0]LogTextLocalizationManager: No localization for 'en-US' exists, so 'en' will be used for the language.
[2020.12.31-12.50.28:790][  0]LogTextLocalizationManager: No localization for 'en-US' exists, so 'en' will be used for the locale.
[2020.12.31-12.50.28:790][  0]LogSlate: FontCache flush requested. Reason: Culture for localization was changed
[2020.12.31-12.50.28:790][  0]LogSlate: FontCache flush requested. Reason: Culture for localization was changed
[2020.12.31-12.50.28:791][  0]LogTextLocalizationManager: Compacting localization data took   0.00ms
[2020.12.31-12.50.28:793][  0]LogAssetRegistry: FAssetRegistry took 0.0014 seconds to start up
[2020.12.31-12.50.28:934][  0]LogPackageLocalizationCache: Processed 22 localized package path(s) for 1 prioritized culture(s) in 0.000775 seconds
[2020.12.31-12.50.28:986][  0]LogInit: Selected Device Profile: [Windows]
[2020.12.31-12.50.28:986][  0]LogInit: Active device profile: [000001C7EFC7E200][000001C7E28525C0 49] Windows
[2020.12.31-12.50.28:986][  0]LogInit: Profiles: [000001C7EFC7E200][000001C7E28525C0 49] Windows, [000001C7EFC86000][000001C7E84B8740 49] WindowsNoEditor, [000001C7EFC7E000][000001C7E84BC8C0 49] WindowsServer, [000001C7EFC84200][000001C7E8A78A40 49] WindowsClient, [000001C7EFC7C300][000001C7E8A7CBC0 49] IOS, [000001C7EFC87000][000001C7E8A80D40 49] iPadAir, [000001C7EFC7E900][000001C7E8A84EC0 49] iPadAir2, [000001C7EFC37C00][000001C7E8A89100 49] IPadPro, [000001C7EFC37D00][000001C7E84B5140 49] iPadAir3, [000001C7EFC7D900][000001C7E8A8D280 49] iPadAir4, [000001C7EFC36600][000001C7E8A913C0 49] iPadMini2, [000001C7EFC7FA00][000001C7E8A99540 49] iPadMini3, [000001C7EFC34E00][000001C7E8A9D6C0 49] iPadMini4, [000001C7EFC7C900][000001C7E8AA1840 49] iPadMini5, [000001C7EFC83500][000001C7E8AA9B00 49] iPhone6, [000001C7EFC83600][000001C7E8AA5B40 49] iPodTouch6, [000001C7EFC37700][000001C7E8AB0140 49] iPhone7, [000001C7EFC37600][000001C7E8AAC180 49] iPodTouch7, [000001C7EFC82400][000001C7E8AB4300 49] iPhone5S, [000001C7EFC35B00][000001C7E8AB8480 49] iPhone6Plus, [000001C7EFC80C00][000001C7E8ABC600 49] iPhone6S, [000001C7EFC34100][000001C7E8AC0780 49] iPhone6SPlus, [000001C7EFC82F00][000001C7E8AC4900 49] iPhone7Plus, [000001C7EFC34F00][000001C7E8AC8A80 49] iPhoneSE, [000001C7EFC81100][000001C7E8ACCC00 49] iPhone8, [000001C7EFC34900][000001C7E8AD0D80 49] iPhone8Plus, [000001C7EFC83700][000001C7E8AD4F00 49] iPhoneX, [000001C7EFC34D00][000001C7E8A95040 49] iPhoneXS, [000001C7EFC80800][000001C7E8AD9180 49] iPhoneXSMax, [000001C7EFC36900][000001C7E8ADD2C0 49] iPhoneXR, [000001C7EFC83C00][000001C7E8AE1400 49] iPhone11, [000001C7EFC37100][000001C7E8AE9580 49] iPhone11Pro, [000001C7EFC82300][000001C7E8AED700 49] iPhone11ProMax, [000001C7EFC35C00][000001C7E8AF1880 49] iPhoneSE2, [000001C7EFC81700][000001C7E8AF5A00 49] iPhone12Mini, [000001C7EFC34C00][000001C7E8AF9B80 49] iPhone12, [000001C7EFC80100][000001C7E8AFDD00 49] iPhone12Pro, [000001C7EFC36C00][000001C7E8B001C0 49] iPhone12ProMax, [000001C7EFC81400][000001C7E8B04340 49] iPadPro105, [000001C7EFC34600][000001C7E8B084C0 49] iPadPro129, [000001C7EFC83B00][000001C7E8B0C640 49] iPadPro97, [000001C7EFC37200][000001C7E8B107C0 49] iPadPro2_129, [000001C7EFC80E00][000001C7E8B14940 49] iPad5, [000001C7EFC37400][000001C7E8B18AC0 49] iPad6, [000001C7EFC80F00][000001C7E8B1CC40 49] iPad7, [000001C7EFC87E00][000001C7E8B20DC0 49] iPad8, [000001C7EFC35200][000001C7E8B24F40 49] iPadPro11, [000001C7EFC87200][000001C7E8B290C0 49] iPadPro2_11, [000001C7EFC36400][000001C7E8AE5200 49] iPadPro3_129, [000001C7EFC87700][000001C7E8B2D340 49] iPadPro4_129, [000001C7EFC37800][000001C7E8B31480 49] AppleTV, [000001C7EFC84900][000001C7E8B39600 49] AppleTV4K, [000001C7EFC36300][000001C7E8B3D780 49] TVOS, [000001C7EFC87C00][000001C7E9473900 49] Mac, [000001C7EFC37B00][000001C7E9477A80 49] MacClient, [000001C7EFC83900][000001C7E947BC00 49] MacNoEditor, [000001C7EFC87400][000001C7E947E0C0 49] MacServer, [000001C7EFC82900][000001C7E9482240 49] Linux, [000001C7EFC84300][000001C7E94863C0 49] LinuxNoEditor, [000001C7EFC80400][000001C7E948A540 49] LinuxAArch64NoEditor, [000001C7EFC85100][000001C7E948E6C0 49] LinuxClient, [000001C7EFC82000][000001C7E9492840 49] LinuxAArch64Client, [000001C7EFC87B00][000001C7E94969C0 49] LinuxServer, [000001C7EFC81E00][000001C7E949AB40 49] LinuxAArch64Server, [000001C7EFC35800][000001C7E949ECC0 49] Android, [000001C7EFC80D00][000001C7E94A2E40 49] Android_Low, [000001C7EFC37E00][000001C7E94A6FC0 49] Android_Mid, [000001C7EFC81900][000001C7E94AB140 49] Android_High, [000001C7EFC36200][000001C7E8B35280 49] Android_Default, [000001C7EFC82500][000001C7E94AF3C0 49] Android_Adreno4xx, [000001C7EFC35700][000001C7E94B3500 49] Android_Adreno5xx_Low, [000001C7EFC81200][000001C7E94B7640 49] Android_Adreno5xx, [000001C7EFC36E00][000001C7E94BF7C0 49] Android_Adreno6xx, [000001C7EFC81000][000001C7E94C3940 49] Android_Adreno6xx_Vulkan, [000001C7EFC36700][000001C7E94C7AC0 49] Android_Mali_T6xx, [000001C7EFC80300][000001C7E94CBC40 49] Android_Mali_T7xx, [000001C7EFC35F00][000001C7E94CE100 49] Android_Mali_T8xx, [000001C7EFC80B00][000001C7E94D2280 49] Android_Mali_G71, [000001C7EFC36B00][000001C7E94D6400 49] Android_Mali_G72, [000001C7EFC81800][000001C7E94DA580 49] Android_Mali_G72_Vulkan, [000001C7EFC35300][000001C7E94DE700 49] Android_Mali_G76, [000001C7EFC82200][000001C7E94E2880 49] Android_Mali_G76_Vulkan, [000001C7EFC37F00][000001C7E94E6A00 49] Android_Mali_G77, [000001C7EFC82600][000001C7E94EAB80 49] Android_Mali_G77_Vulkan, [000001C7EFC35500][000001C7E94EED00 49] Android_Vulkan_SM5, [000001C7EFC83100][000001C7E94F2E80 49] Android_PowerVR_G6xxx, [000001C7EFC34200][000001C7E94F7000 49] Android_PowerVR_GT7xxx, [000001C7EFC80900][000001C7E94FB180 49] Android_PowerVR_GE8xxx, [000001C7EFC35600][000001C7E94BB2C0 49] Android_PowerVR_GM9xxx, [000001C7EFC83E00][000001C7E94FF400 49] Android_PowerVR_GM9xxx_Vulkan, [000001C7EFC35A00][000001C7E9503540 49] Android_TegraK1, [000001C7EFC80600][000001C7E9507680 49] Android_Unknown_Vulkan, [000001C7EFC35900][000001C7E950F800 49] Lumin, [000001C7EFC83800][000001C7E9513980 49] Lumin_Desktop, [000001C7EFC37000][000001C7E9517B00 49] HoloLens, 
[2020.12.31-12.50.29:023][  0]LogMeshReduction: Using QuadricMeshReduction for automatic static mesh reduction
[2020.12.31-12.50.29:023][  0]LogMeshReduction: Using SimplygonMeshReduction for automatic skeletal mesh reduction
[2020.12.31-12.50.29:023][  0]LogMeshReduction: Using ProxyLODMeshReduction for automatic mesh merging
[2020.12.31-12.50.29:023][  0]LogMeshReduction: No distributed automatic mesh merging module available
[2020.12.31-12.50.29:023][  0]LogMeshMerging: No distributed automatic mesh merging module available
[2020.12.31-12.50.29:095][  0]LogNetVersion: Game 1.0.0, NetCL: 14830424, EngineNetVer: 16, GameNetVer: 0 (Checksum: 2577159539)
[2020.12.31-12.50.29:330][  0]LogHMD: PokeAHoleMaterial loaded successfully
[2020.12.31-12.50.29:423][  0]LogMoviePlayer: Initializing movie player
[2020.12.31-12.50.29:601][  0]LogTcpMessaging: Initializing TcpMessaging bridge
[2020.12.31-12.50.29:605][  0]LogUdpMessaging: Initializing bridge on interface 0.0.0.0:0 to multicast group 230.0.0.1:6666.
[2020.12.31-12.50.29:677][  0]SourceControl: Source control is disabled
[2020.12.31-12.50.29:677][  0]SourceControl: Source control is disabled
[2020.12.31-12.50.29:685][  0]SourceControl: Source control is disabled
[2020.12.31-12.50.29:689][  0]LogUProjectInfo: Found projects:
[2020.12.31-12.50.29:753][  0]LogAndroidPermission: UAndroidPermissionCallbackProxy::GetInstance
[2020.12.31-12.50.29:767][  0]LogAudioCaptureCore: Display: No Audio Capture implementations found. Audio input will be silent.
[2020.12.31-12.50.29:767][  0]LogAudioCaptureCore: Display: No Audio Capture implementations found. Audio input will be silent.
[2020.12.31-12.50.29:816][  0]LogOcInput: OculusInput pre-init called
[2020.12.31-12.50.29:822][  0]LogUObjectArray: 20258 objects as part of root set at end of initial load.
[2020.12.31-12.50.29:822][  0]LogUObjectAllocator: 5411472 out of 0 bytes used by permanent object pool.
[2020.12.31-12.50.29:822][  0]LogUObjectArray: CloseDisregardForGC: 0/0 objects in disregard for GC pool
[2020.12.31-12.50.29:864][  0]LogEngine: Initializing Engine...
[2020.12.31-12.50.29:865][  0]LogHMD: Failed to initialize OpenVR with code 110
[2020.12.31-12.50.29:865][  0]LogMagicLeap: Warning: VR disabled because ZI is not enabled.  To enable, in the editor, Edit -> Project Settings -> Plugins -> Magic Leap Plugin -> Enable Zero Iteration
[2020.12.31-12.50.29:866][  0]LogStats: UGameplayTagsManager::InitializeManager -  0.000 s
[2020.12.31-12.50.29:936][  0]LogInit: Initializing FReadOnlyCVARCache
[2020.12.31-12.50.29:936][  0]LogAudio: Display: Initializing Audio Device Manager...
[2020.12.31-12.50.29:939][  0]LogAudio: Display: Audio Device Manager Initialized
[2020.12.31-12.50.29:939][  0]LogAudio: Display: Creating Audio Device:                 Id: 1, Scope: Shared, Realtime: True
[2020.12.31-12.50.29:939][  0]LogAudioMixer: Display: Audio Mixer Platform Settings:
[2020.12.31-12.50.29:939][  0]LogAudioMixer: Display: 	Sample Rate:						  48000
[2020.12.31-12.50.29:939][  0]LogAudioMixer: Display: 	Callback Buffer Frame Size Requested: 1024
[2020.12.31-12.50.29:939][  0]LogAudioMixer: Display: 	Callback Buffer Frame Size To Use:	  1024
[2020.12.31-12.50.29:939][  0]LogAudioMixer: Display: 	Number of buffers to queue:			  2
[2020.12.31-12.50.29:939][  0]LogAudioMixer: Display: 	Max Channels (voices):				  32
[2020.12.31-12.50.29:939][  0]LogAudioMixer: Display: 	Number of Async Source Workers:		  0
[2020.12.31-12.50.29:939][  0]LogAudio: Display: AudioDevice MaxSources: 32
[2020.12.31-12.50.29:939][  0]LogAudio: Display: Using built-in audio occlusion.
[2020.12.31-12.50.29:939][  0]LogAudioMixer: Display: Initializing audio mixer.
[2020.12.31-12.50.29:948][  0]LogAudioMixer: Display: 0: FrontLeft
[2020.12.31-12.50.29:948][  0]LogAudioMixer: Display: 1: FrontRight
[2020.12.31-12.50.29:968][  0]LogAudioMixer: Display: Using Audio Device Speakers (2- USB Audio Device)
[2020.12.31-12.50.29:971][  0]LogAudioMixer: Display: Initializing Sound Submixes...
[2020.12.31-12.50.29:972][  0]LogAudioMixer: Display: Creating Master Submix 'MasterSubmixDefault'
[2020.12.31-12.50.29:972][  0]LogAudioMixer: Display: Creating Master Submix 'MasterReverbSubmixDefault'
[2020.12.31-12.50.29:973][  0]LogAudioMixer: Display: Creating Master Submix 'MasterEQSubmixDefault'
[2020.12.31-12.50.29:973][  0]LogAudioMixer: FMixerPlatformXAudio2::StartAudioStream() called
[2020.12.31-12.50.29:973][  0]LogAudioMixer: Display: Output buffers initialized: Frames=1024, Channels=2, Samples=2048
[2020.12.31-12.50.29:974][  0]LogAudioMixer: Display: Starting AudioMixerPlatformInterface::RunInternal()
[2020.12.31-12.50.29:974][  0]LogAudioMixer: Display: FMixerPlatformXAudio2::SubmitBuffer() called for the first time
[2020.12.31-12.50.29:974][  0]LogInit: FAudioDevice initialized.
[2020.12.31-12.50.29:975][  0]LogNetVersion: Set ProjectVersion to 1.0.0.0. Version Checksum will be recalculated on next use.
[2020.12.31-12.50.29:975][  0]LogInit: Texture streaming: Enabled
[2020.12.31-12.50.30:018][  0]LogAudio: Display: Audio Device (ID: 1) registered with world 'Untitled'.
[2020.12.31-12.50.30:018][  0]LogSlate: Updating window title bar state: overlay mode, drag disabled, window buttons hidden, title bar hidden
[2020.12.31-12.50.30:019][  0]LogInit: Display: Game Engine Initialized.
[2020.12.31-12.50.30:019][  0]LogNiagaraEditor: GEditor isn't valid! Particle reset commands will not work for Niagara components!
[2020.12.31-12.50.30:067][  0]LogInit: Display: Starting Game.
[2020.12.31-12.50.30:067][  0]LogNet: Browse: /Game/Levels/Main?Name=Player
[2020.12.31-12.50.30:067][  0]LogLoad: LoadMap: /Game/Levels/Main?Name=Player
[2020.12.31-12.50.30:067][  0]LogWorld: BeginTearingDown for /Temp/Untitled_0
[2020.12.31-12.50.30:068][  0]LogWorld: UWorld::CleanupWorld for Untitled, bSessionEnded=true, bCleanupResources=true
[2020.12.31-12.50.30:068][  0]LogSlate: InvalidateAllWidgets triggered.  All widgets were invalidated
[2020.12.31-12.50.30:078][  0]LogAudio: Display: Audio Device unregistered from world 'None'.
[2020.12.31-12.50.30:080][  0]LogUObjectHash: Compacting FUObjectHashTables data took   0.69ms
[2020.12.31-12.50.30:123][  0]LogAudio: Display: Audio Device (ID: 1) registered with world 'Main'.
[2020.12.31-12.50.30:128][  0]LogAIModule: Creating AISystem for world Main
[2020.12.31-12.50.30:203][  0]LogLoad: Game class is 'DefaultGameMode_C'
[2020.12.31-12.50.30:204][  0]LogWorld: Bringing World /Game/Levels/Main.Main up for play (max tick rate 0) at 2020.12.31-20.50.30
[2020.12.31-12.50.30:204][  0]LogWorld: Bringing up level for play took: 0.001174
[2020.12.31-12.50.30:206][  0]LogScript: Warning: Accessed None trying to read property GunMesh
	BP_FPSCharacter_C /Game/Levels/Main.Main:PersistentLevel.BP_FPSCharacter_C_0
	Function /Game/Blueprints/BP_FPSCharacter.BP_FPSCharacter_C:UserConstructionScript:000A
[2020.12.31-12.50.30:206][  0]LogScript: Warning: Script call stack:
	Function /Game/Blueprints/BP_FPSCharacter.BP_FPSCharacter_C:UserConstructionScript

